2 Data and data management | Learn Statistics with Public Use Microdata
…
Yay, the data is loaded. Now you need to find out what exactly we loaded. You can find the data available to you with the ls command.

ls()

## [1] "ACS2018_ASC_raw"

Apparently the data is saved with the name ACS2018_ASC_raw.

2.2.1 Viewing data

After you’ve loaded the data. You probably want to see what the data contains. The easiest way is to just type the name of the data you want to see.

ACS2018_ASC_raw

## # A tibble: 35,638 x 512
##    SERIALNO DIVISION SPORDER PUMA  REGION ST    ADJINC PWGTP  AGEP   CIT CITWP
##    <chr>       <dbl> <chr>   <chr>  <dbl> <chr>  <dbl> <dbl> <dbl> <dbl> <dbl>
##  1 2018GQ0…        9 01      00101      4 06    1.01e6    48    19     5    NA
##  2 2018GQ0…        9 01      00106      4 06    1.01e6    52    21     1    NA
##  3 2018GQ0…        9 01      08507      4 06    1.01e6    33    65     1    NA
##  4 2018GQ0…        9 01      00103      4 06    1.01e6    20    23     1    NA
##  5 2018GQ0…        9 01      00106      4 06    1.01e6     9    48     1    NA
##  6 2018GQ0…        9 01      08512      4 06    1.01e6    14    89     4  1995
##  7 2018GQ0…        9 01      08509      4 06    1.01e6    79    18     1    NA
##  8 2018GQ0…        9 01      08509      4 06    1.01e6    66    22     1    NA
##  9 2018GQ0…        9 01      00101      4 06    1.01e6    59    94     1    NA
## 10 2018GQ0…        9 01      08504      4 06    1.01e6    83    36     1    NA
## # … with 35,628 more rows, and 501 more variables: COW <dbl>, DDRS <dbl>,
## #   DEAR <dbl>, DEYE <dbl>, DOUT <dbl>, DPHY <dbl>, DRAT <dbl>, DRATX <dbl>,
## #   DREM <dbl>, ENG <dbl>, FER <dbl>, GCL <dbl>, GCM <chr>, GCR <chr>,
## #   HINS1 <dbl>, HINS2 <dbl>, HINS3 <dbl>, HINS4 <dbl>, HINS5 <dbl>,
## #   HINS6 <dbl>, HINS7 <dbl>, INTP <dbl>, JWMNP <dbl>, JWRIP <dbl>, JWTR <chr>,
## #   LANX <dbl>, MAR <dbl>, MARHD <dbl>, MARHM <dbl>, MARHT <dbl>, MARHW <dbl>,
## #   MARHYP <dbl>, MIG <dbl>, MIL <dbl>, MLPA <dbl>, MLPB <dbl>, MLPCD <dbl>,
## #   MLPE <dbl>, MLPFG <dbl>, MLPH <dbl>, MLPI <dbl>, MLPJ <dbl>, MLPK <dbl>,
## #   NWAB <dbl>, NWAV <dbl>, NWLA <dbl>, NWLK <dbl>, NWRE <dbl>, OIP <dbl>,
…
tells R to load the data and then do several things to it. The first pipe tells R to take the data and cut it. The second pipe tells R to take the stuff which was cut and then marinate it. The third pipe tells R to take the cut and marinate(d) data and cook it. The fourth and final pipe tells R to take the cut, marinated(d) and cook(ed) data and eat it. You’ll use the pipe a lot to string together different commands.

2.3.2 Looking at one variable

There’s no need to always see or work with all 512 variables. Instead we will select one or more variables needed for analysis. Let’s start with selecting a variable which tells us the subject’s sex.

ACS2018_ASC_raw %>%
  select(SEX)

## # A tibble: 35,638 x 1
##      SEX
##    <dbl>
##  1     1
##  2     1
##  3     1
##  4     2
##  5     2
##  6     2
##  7     1
##  8     2
##  9     2
## 10     1
## # … with 35,628 more rows
…
2 .Female

We need to recode the values by turning 1’s (numeric) into Male (categorical) and 2’s into Female. However we don’t want to change the SEX variable. Instead we will create a new variable called new_SEX. This is one of the tenets of reproducible research. Suppose someone sees your analysis using this data and then wants to do it themselves. They’ll be surprised when they download the ACS data and find out there is no Male but only 1 in the SEX variable if you don’t include the code that made the change.

We will accomplish this task of recoding in two parts.

2.3.4 Mutate

We create a new variable using mutate. mutate takes a variable and creates a new variable by doing something to the old variable. For instance, maybe we want to add 7 to everyone’s age.

ACS2018_ASC_raw %>%
  select(AGEP) %>%
  mutate(new_AGEP = AGEP + 7)

## # A tibble: 35,638 x 2
##     AGEP new_AGEP
##    <dbl>    <dbl>
##  1    19       26
##  2    21       28
##  3    65       72
##  4    23       30
##  5    48       55
##  6    89       96
##  7    18       25
##  8    22       29
##  9    94      101
## 10    36       43
## # … with 35,628 more rows
…
The recode_factor or recode function does the heavy lifting of turning all 1’s into Male. The difference is whether you want to create a categorical/factor variable or not.

recode(oldvarible,
       "old value 1" = "new value 1",
       "old value 2" = "new value 2")

We put everything together to get this code which uses both mutate and recode to make a new SEX variable which says Male and Female.

ACS2018_ASC_raw %>%
  select(SEX) %>%
  mutate(new_SEX = recode_factor(SEX,
                          "1" = "Male",
                          "2" = "Female"))

## # A tibble: 35,638 x 2
##      SEX new_SEX
##    <dbl> <fct>  
##  1     1 Male   
##  2     1 Male   
##  3     1 Male   
##  4     2 Female 
##  5     2 Female 
##  6     2 Female 
##  7     1 Male   
##  8     2 Female 
##  9     2 Female 
## 10     1 Male   
## # … with 35,628 more rows
…
Now that we’ve created a new data frame with only the variables that we need and they’re clean, we can save it. We will save our data, myclean_data, into the Data directory as myclean_data.RData. You can load this clean version with only the variables you want in the future.

save(mydata_clean, file = "~/Data/output/ACS_clean.RData")

Next time you need the data to analyze, simply load it with load("~/Data/output/ACS_clean.RData"). The data will be named mydata_clean or whatever name you used.

2.5 Filtering rows

Sometimes instead of selecting columns we only want to select certain rows. This is called filtering. We can filter out everything except women who have no hearing difficulty. You can put multiple criteria by separating with commas. Notice the use of the double equals ==.

mydata_clean %>%
  filter(new_SEX == "Female",
         new_DEAR == "No hearing difficulty")

## # A tibble: 17,592 x 24
##     AGEP  WAGP  WKHP PINCP FINCP HINCP    NP   NPF  BDSP  RNTP  MRGP   MSP JWMNP
##    <dbl> <dbl> <dbl> <dbl> <dbl> <dbl> <dbl> <int> <dbl> <int> <dbl> <dbl> <dbl>
##  1    23  6000    50  7500    NA    NA     1    NA    NA    NA    NA     6    10
##  2    48     0    NA     0    NA    NA     1    NA    NA    NA    NA     6    NA
##  3    89     0    NA 15600    NA    NA     1    NA    NA    NA    NA     3    NA
##  4    22     0    NA     0    NA    NA     1    NA    NA    NA    NA     6    NA
##  5    94     0    NA  4300    NA    NA     1    NA    NA    NA    NA     3    NA
##  6    18  1400    12  1400    NA    NA     1    NA    NA    NA    NA     6    NA
##  7    18     0    NA     0    NA    NA     1    NA    NA    NA    NA     6    NA
##  8    25 39000    40 39000    NA    NA     1    NA    NA    NA    NA     6    10
##  9    84     0    NA 50300    NA    NA     1    NA    NA    NA    NA     4    NA
## 10    34     0    NA  8800    NA    NA     1    NA    NA    NA    NA     6    NA
## # … with 17,582 more rows, and 11 more variables: PUMA <fct>, SERIALNO <fct>,
## #   new_SEX <fct>, new_DEYE <fct>, new_DEAR <fct>, new_RAC1P <fct>,
## #   new_FS <fct>, new_HUPAC <fct>, MV_new <ord>, JWTR_new <fct>, MSP_new <ord>
…
